Re_2019-03-09T15_33_03+02_00.eml,"[('', 'zjigulin_a@inet.ua')]","[('Виталий Ковальчук', 'vitalii.kovalchuk@protonmail.com')]",Re: Насчет вчерашнего разговора,2019-03-09 13:33:03,221.175.150.178,CN
Re_ (No Subject) 2019-03-19T10_07_52+02_00.eml,"[('', 'nata172@inet.ua')]","[('Виталий Ковальчук', 'vitalii.kovalchuk@protonmail.com')]",Re: (No Subject),2019-03-19 08:07:52,92.242.126.154,UA
2019-03-13T11_51_34+02_00.eml,"[('', 'engeniy.radchenko@inet.ua')]","[('', 'vitalii.kovalchuk@protonmail.com')]",встреча,2019-03-13 09:51:34,193.200.151.69,UA
Re_ 2019-03-21T12_24_13+02_00.eml,"[('Виталий Ковальчук', 'vitalii.kovalchuk@protonmail.com')]","[('', 'k_negoda@meta.ua'), ('', 'k_negoda@meta.ua')]",Re: документы,2019-03-21 10:24:13,384.195.138.94,
2019-03-12T01_39_05-07_00.eml,"[('Приходько Геннадий', 'gprihodko@meta.ua')]","[('', 'vitalii.kovalchuk@protonmail.com')]",Готово,2019-03-12 08:39:05,46.164.149.39,UA
Re_ (No Subject) 2019-03-13T12_05_21+02_00.eml,"[('Стражук Дмитро', 'dmitro-strazjuk@meta.ua')]","[('Виталий Ковальчук', 'vitalii.kovalchuk@protonmail.com')]",Re: (No Subject),2019-03-13 10:05:21,95.134.195.78,UA
Re_ (No Subject) 2019-03-15T11_32_23+02_00.eml,"[('', 'zjigulin_a@inet.ua')]","[('Виталий Ковальчук', 'vitalii.kovalchuk@protonmail.com')]",Re: (No Subject),2019-03-15 09:32:23,217.76.204.14,UA
2019-03-10T10_05_26+02_00.eml,"[('Негода Константин', 'k_negoda@meta.ua')]","[('', 'vitalii.kovalchuk@protonmail.com')]",Перешли архивом,2019-03-10 08:05:26,195.138.82.198,UA
Re_ 2019-03-19T10_54_21+02_00.eml,"[('Виталий Ковальчук', 'vitalii.kovalchuk@protonmail.com')]","[('Игоренко Виктор', 'vic-ig@meta.ua')]",Re: заказ,2019-03-19 08:54:21,540.37.53.93,
No Subject) 2019-03-12T08_16_16-07_00.eml,"[('Негода Константин', 'k_negoda@meta.ua')]","[('', 'vitalii.kovalchuk@protonmail.com')]",(No Subject),2019-03-12 15:16:16,195.138.92.152,UA
Re_ (No Subject) 2019-03-20T12_02_58+02_00.eml,"[('Виталий Ковальчук', 'vitalii.kovalchuk@protonmail.com')]","[('', '380975551318@inet.ua'), ('', '380975551318@inet.ua')]",Re: (No Subject),2019-03-20 10:02:58,,
Re_ 2019-03-21T14_32_38+02_00.eml,"[('Негода Константин', 'k_negoda@meta.ua')]","[('Виталий Ковальчук', 'vitalii.kovalchuk@protonmail.com')]",Re: документы,2019-03-21 12:32:38,195.138.94.21,UA
Re_ 2019-03-09T14_55_50+02_00.eml,"[('', 'zjigulin_a@inet.ua')]","[('Виталий Ковальчук', 'vitalii.kovalchuk@protonmail.com')]",Re: Насчет вчерашнего разговора,2019-03-09 12:55:50,221.175.150.178,CN
(No Subject) 2019-03-18T09_33_34+02_00.eml,"[('Виталий Ковальчук', 'vitalii.kovalchuk@protonmail.com')]","[('', 'dimitry.yarmak@meta.ua'), ('', 'dimitry.yarmak@meta.ua')]",(No Subject),2019-03-18 07:33:34,,
Re_2019-03-09T14_09_36+02_00.eml,"[('Негода Константин', 'k_negoda@meta.ua')]","[('Виталий Ковальчук', 'vitalii.kovalchuk@protonmail.com')]",Re: по вопросам,2019-03-09 12:09:36,195.138.82.198,UA
Re_ (No Subject) 2019-03-18T11_40_26+02_00.eml,"[('Гелетей Валерий', 'geleteyv@meta.ua')]","[('Виталий Ковальчук', 'vitalii.kovalchuk@protonmail.com')]",Re: (No Subject),2019-03-18 09:40:26,194.183.174.152,UA
Re_ (No Subject) 2019-03-19T10_27_50+02_00.eml,"[('', 'nata172@inet.ua')]","[('Виталий Ковальчук', 'vitalii.kovalchuk@protonmail.com')]",Re: (No Subject),2019-03-19 08:27:50,92.242.126.154,UA
Referring to your request 2019-03-15T16_17_08+02_00.eml,"[('Carl Bildt', 'c-bildt@gmx.com')]","[('', 'vitalii.kovalchuk@protonmail.com')]",Referring to your request,2019-03-15 14:17:08,85.30.48.222,SE
Re_ (No Subject) 2019-03-18T10_23_11+02_00.eml,"[('', 'zjigulin_a@inet.ua')]","[('Виталий Ковальчук', 'vitalii.kovalchuk@protonmail.com')]",Re: (No Subject),2019-03-18 08:23:11,217.76.204.14,UA
Re_ 2019-03-10T13_06_15+02_00.eml,"[('Виталий Ковальчук', 'vitalii.kovalchuk@protonmail.com')]","[('', 'dmitro-strazjuk@meta.ua'), ('', 'dmitro-strazjuk@meta.ua')]",Re: Неприятный разговор,2019-03-10 11:06:15,221.95.134.195,JP
2019-03-12T01_23_06-07_00.eml,"[('Соколовский Александр', 'asokokol@meta.ua')]","[('', 'vitalii.kovalchuk@protonmail.com')]",агитация,2019-03-12 08:23:06,5.58.152.226,UA
Re_ 2019-03-10T11_49_49+02_00.eml,"[('Виталий Ковальчук', 'vitalii.kovalchuk@protonmail.com')]","[('', 'k_negoda@meta.ua'), ('', 'k_negoda@meta.ua')]",Re: Перешли архивом,2019-03-10 09:49:49,179.195.138.82,BR
Re_ 2019-03-10T13_35_40+02_00.eml,"[('Виталий Ковальчук', 'vitalii.kovalchuk@protonmail.com')]","[('', 'dmitro-strazjuk@meta.ua'), ('', 'dmitro-strazjuk@meta.ua')]",Re: Неприятный разговор,2019-03-10 11:35:40,064.95.134.195,
(No Subject) 2019-03-13T12_34_09+02_00.eml,"[('', 'osherbak@inet.ua')]","[('', 'vitalii.kovalchuk@protonmail.com')]",(No Subject),2019-03-13 10:34:09,178.136.195.6,UA
Re_ (No Subject) 2019-03-18T10_56_23+02_00.eml,"[('Ярмак Дмитрий', 'dimitry.yarmak@meta.ua')]","[('Виталий Ковальчук', 'vitalii.kovalchuk@protonmail.com')]",Re: (No Subject),2019-03-18 08:56:23,46.151.192.170,UA
Re_ (No Subject) 2019-03-20T11_51_10+02_00.eml,"[('Виталий Ковальчук', 'vitalii.kovalchuk@protonmail.com')]","[('', '380975551318@inet.ua'), ('', '380975551318@inet.ua')]",Re: (No Subject),2019-03-20 09:51:10,,
2019-03-14T09_42_18+02_00.eml,"[('Негода Константин', 'k_negoda@meta.ua')]","[('', 'vitalii.kovalchuk@protonmail.com')]",документы,2019-03-14 07:42:18,195.138.82.198,UA
(No Subject) 2019-03-19T09_14_57+02_00.eml,"[('Виталий Ковальчук', 'vitalii.kovalchuk@protonmail.com')]","[('Негода Константин', 'k_negoda@meta.ua')]",(No Subject),2019-03-19 07:14:57,,
Re_ 2019-03-11T07_22_25-07_00.eml,"[('Виталий Ковальчук', 'vitalii.kovalchuk@protonmail.com')]","[('', 'hmelko.valery@inet.ua'), ('', 'hmelko.valery@inet.ua')]",Re: Рейтинги кандидатов,2019-03-11 14:22:25,,
Re_2019-03-09T18_48_33+02_00.eml,"[('Виталий Ковальчук', 'vitalii.kovalchuk@protonmail.com')]","[('', 'medvedev-oleg@inet.ua'), ('', 'medvedev-oleg@inet.ua')]",Re: Надо собрать побольше hecklerов,2019-03-09 16:48:33,,
Re_ 2019-03-08T03_27_55-08_00.eml,"[('Виталий Ковальчук', 'vitalii.kovalchuk@protonmail.com')]","[('Негода Константин', 'k_negoda@meta.ua')]",Re: по вопросам,2019-03-08 11:27:55,698.195.138.82,
2019-03-13T11_13_24+02_00.eml,"[('Горковенко Владимир', 'vl_gorkovenko@meta.ua')]","[('', 'vitalii.kovalchuk@protonmail.com')]",ЮВТ,2019-03-13 09:13:24,91.203.114.58,UA
2019-03-12T01_04_00-07_00.eml,"[('Горковенко Владимир', 'vl_gorkovenko@meta.ua')]","[('', 'vitalii.kovalchuk@protonmail.com')]",поздравления,2019-03-12 08:04:00,46.175.70.69,UA
Re_ (No Subject) 2019-03-12T03_30_37-07_00.eml,"[('Виталий Ковальчук', 'vitalii.kovalchuk@protonmail.com')]","[('', 'k_negoda@meta.ua'), ('', 'k_negoda@meta.ua')]",Re: (No Subject),2019-03-12 10:30:37,545.195.138.82,
_ 2019-03-09T19_02_47+02_00.eml,"[('Горковенко Владимир', 'vl_gorkovenko@meta.ua')]","[('', 'vitalii.kovalchuk@protonmail.com')]","О чем с вами говорили, так пойдет?",2019-03-09 17:02:47,91.203.114.58,UA
Re_ (No Subject) 2019-03-11T08_50_07-07_00.eml,"[('Виталий Ковальчук', 'vitalii.kovalchuk@protonmail.com')]","[('', 'oleg-valendiuk@meta.ua'), ('', 'oleg-valendiuk@meta.ua')]",Re: (No Subject),2019-03-11 15:50:07,043.46.201.225,
Re_ (No Subject) 2019-03-12T03_24_56-07_00.eml,"[('Негода Константин', 'k_negoda@meta.ua')]","[('Виталий Ковальчук', 'vitalii.kovalchuk@protonmail.com')]",Re: (No Subject),2019-03-12 10:24:56,195.138.82.198,UA
2019-03-15T10_11_54+02_00.eml,"[('Виталий Ковальчук', 'vitalii.kovalchuk@protonmail.com')]","[('', 'dimitry.ermak@meta.ua'), ('', 'dimitry.ermak@meta.ua')]",зе,2019-03-15 08:11:54,,
upd 2019-03-14T11_35_58+02_00.eml,"[('Горковенко Владимир', 'vl_gorkovenko@meta.ua')]","[('', 'vitalii.kovalchuk@protonmail.com')]",upd,2019-03-14 09:35:58,91.203.114.67,UA
2019-03-09T15_47_32+02_00.eml,"[('Кривко Мария', 'mary-krivko@meta.ua')]","[('', 'vitalii.kovalchuk@protonmail.com')]",Вопрос со статьей улажен,2019-03-09 13:47:32,5.58.208.112,UA
2019-03-10T14_02_32+02_00.eml,"[('', 'olenagitlyanska@inet.ua')]","[('', 'vitalii.kovalchuk@protonmail.com')]",Я вже про це писала,2019-03-10 12:02:32,195.211.174.34,UA
Fwd_ Re_ 2019-03-12T04_48_36-07_00.eml,"[('', 'zjigulin_a@inet.ua')]","[('', 'vitalii.kovalchuk@protonmail.com')]",Fwd: Re: Интервью,2019-03-12 11:48:36,221.175.150.178,CN
(No Subject) 2019-03-14T10_12_56+02_00.eml,"[('Виталий Ковальчук', 'vitalii.kovalchuk@protonmail.com')]","[('', 'alexey.dmitrieskiy@meta.ua'), ('', 'alexey.dmitrieskiy@meta.ua')]",(No Subject),2019-03-14 08:12:56,,
Re_ (No Subject) 2019-03-13T11_27_32+02_00.eml,"[('Стражук Дмитро', 'dmitro-strazjuk@meta.ua')]","[('Виталий Ковальчук', 'vitalii.kovalchuk@protonmail.com')]",Re: (No Subject),2019-03-13 09:27:32,95.134.195.78,UA
(No Subject) 2019-03-15T14_44_20+02_00.eml,"[('Виталий Ковальчук', 'vitalii.kovalchuk@protonmail.com')]","[('Негода Константин', 'k_negoda@meta.ua')]",(No Subject),2019-03-15 12:44:20,,
Re_ 2019-03-09T16_16_15+02_00.eml,"[('', 'zjigulin_a@inet.ua')]","[('Виталий Ковальчук', 'vitalii.kovalchuk@protonmail.com')]",Re: Насчет вчерашнего разговора,2019-03-09 14:16:15,221.175.150.178,CN
Re_ (No Subject) 2019-03-13T12_24_40+02_00.eml,"[('Гриневская Мария', 'm.grinevska@meta.ua')]","[('Виталий Ковальчук', 'vitalii.kovalchuk@protonmail.com')]",Re: (No Subject),2019-03-13 10:24:40,109.86.199.155,UA
Re_ (No Subject) 2019-03-19T09_36_50+02_00.eml,"[('Негода Константин', 'k_negoda@meta.ua')]","[('Виталий Ковальчук', 'vitalii.kovalchuk@protonmail.com')]",Re: (No Subject),2019-03-19 07:36:50,195.138.92.152,UA
2019-03-20T10_02_08+02_00.eml,"[('Виталий Ковальчук', 'vitalii.kovalchuk@protonmail.com')]","[('', 'medvedev-oleg@inet.ua'), ('', 'medvedev-oleg@inet.ua'), ('', 'gerasimov-artur@inet.ua'), ('', 'gerasimov-artur@inet.ua'), ('', 'gryniv.igor@inet.ua'), ('', 'gryniv.igor@inet.ua'), ('', 's.berezenko@meta.ua'), ('', 's.berezenko@meta.ua')]",СОВЕЩАНИЕ,2019-03-20 08:02:08,,
Re_ (No Subject) 2019-03-21T10_41_57+02_00.eml,"[('Виталий Ковальчук', 'vitalii.kovalchuk@protonmail.com')]","[('', 'gerasimov-artur@inet.ua'), ('', 'gerasimov-artur@inet.ua')]",Re: (No Subject),2019-03-21 08:41:57,,
Re_2019-03-09T16_07_03+02_00.eml,"[('Виталий Ковальчук', 'vitalii.kovalchuk@protonmail.com')]","[('', 'zjigulin_a@inet.ua'), ('', 'zjigulin_a@inet.ua')]",Re: Насчет вчерашнего разговора,2019-03-09 14:07:03,,
Re_ 18 2019-03-13T10_53_41+02_00.eml,"[('Березенко Сергей', 's.berezenko@meta.ua')]","[('Виталий Ковальчук', 'vitalii.kovalchuk@protonmail.com')]",Re: 18 марта,2019-03-13 08:53:41,194.44.61.10,UA
Re_ 2019-03-21T11_22_48+02_00.eml,"[('Негода Константин', 'k_negoda@meta.ua')]","[('Виталий Ковальчук', 'vitalii.kovalchuk@protonmail.com')]",Re: документы,2019-03-21 09:22:48,195.138.94.21,UA
(No Subject) 2019-03-13T13_18_51+02_00.eml,"[('Яровой Анатолий', 'anatolyyarovoy@meta.ua')]","[('', 'vitalii.kovalchuk@protonmail.com')]",(No Subject),2019-03-13 11:18:51,178.150.89.13,UA
script1.py,[],[],,,,
Re_ (No Subject) 2019-03-19T10_33_45+02_00.eml,"[('Виталий Ковальчук', 'vitalii.kovalchuk@protonmail.com')]","[('', 'nata172@inet.ua'), ('', 'nata172@inet.ua')]",Re: (No Subject),2019-03-19 08:33:45,,
(No Subject) 2019-03-14T12_04_02+02_00.eml,"[('Луценко Ирина', 'lutsenko.irina@meta.ua')]","[('', 'vitalii.kovalchuk@protonmail.com')]",(No Subject),2019-03-14 10:04:02,5.58.167.58,UA
2019-03-11T07_10_36-07_00.eml,"[('Негода Константин', 'k_negoda@meta.ua')]","[('', 'vitalii.kovalchuk@protonmail.com')]",транспорт,2019-03-11 14:10:36,195.138.82.198,UA
Re_ 18 2019-03-13T11_29_39+02_00.eml,"[('Березенко Сергей', 's.berezenko@meta.ua')]","[('Виталий Ковальчук', 'vitalii.kovalchuk@protonmail.com')]",Re: 18 марта,2019-03-13 09:29:39,194.44.61.10,UA
Re_ (No Subject) 2019-03-13T12_21_32+02_00.eml,"[('Виталий Ковальчук', 'vitalii.kovalchuk@protonmail.com')]","[('', 'dmitro-strazjuk@meta.ua'), ('', 'dmitro-strazjuk@meta.ua')]",Re: (No Subject),2019-03-13 10:21:32,624.95.134.195,
Re_2019-03-09T15_16_30+02_00.eml,"[('Виталий Ковальчук', 'vitalii.kovalchuk@protonmail.com')]","[('', 'zjigulin_a@inet.ua'), ('', 'zjigulin_a@inet.ua')]",Re: Насчет вчерашнего разговора,2019-03-09 13:16:30,,
Re_ (No Subject) 2019-03-13T11_57_29+02_00.eml,"[('Виталий Ковальчук', 'vitalii.kovalchuk@protonmail.com')]","[('', 'dmitro-strazjuk@meta.ua'), ('', 'dmitro-strazjuk@meta.ua')]",Re: (No Subject),2019-03-13 09:57:29,267.95.134.195,
Re_ 2019-03-21T13_49_52+02_00.eml,"[('Негода Константин', 'k_negoda@meta.ua')]","[('Виталий Ковальчук', 'vitalii.kovalchuk@protonmail.com')]",Re: документы,2019-03-21 11:49:52,195.138.94.21,UA
(No Subject) 2019-03-11T05_55_05-07_00.eml,"[('Негода Константин', 'k_negoda@meta.ua')]","[('', 'vitalii.kovalchuk@protonmail.com')]",(No Subject),2019-03-11 12:55:05,195.138.82.198,UA
2019-03-21T10_15_30+02_00.eml,"[('', 'engeniy.radchenko@inet.ua')]","[('', 'vitalii.kovalchuk@protonmail.com')]",добрый день,2019-03-21 08:15:30,193.200.151.69,UA
Re_2019-03-13T11_32_45+02_00.eml,"[('Виталий Ковальчук', 'vitalii.kovalchuk@protonmail.com')]","[('', 'vl_gorkovenko@meta.ua'), ('', 'vl_gorkovenko@meta.ua')]",Re: ЮВТ,2019-03-13 09:32:45,949.91.203.114,
Re_ (No Subject) 2019-03-11T06_34_29-07_00.eml,"[('Виталий Ковальчук', 'vitalii.kovalchuk@protonmail.com')]","[('', 'k_negoda@meta.ua'), ('', 'k_negoda@meta.ua')]",Re: (No Subject),2019-03-11 13:34:29,442.195.138.82,
Re_ (No Subject) 2019-03-18T10_40_45+02_00.eml,"[('Виталий Ковальчук', 'vitalii.kovalchuk@protonmail.com')]","[('Ярмак Дмитрий', 'dimitry.yarmak@meta.ua')]",Re: (No Subject),2019-03-18 08:40:45,998.46.151.192,
[Fwd_] 2019-03-13T14_20_23+02_00.eml,"[('Негода Константин', 'k_negoda@meta.ua')]","[('', 'vitalii.kovalchuk@protonmail.com')]",[Fwd: авиа],2019-03-13 12:20:23,195.138.82.198,UA
Re_ 2019-03-11T07_31_23-07_00.eml,"[('Виталий Ковальчук', 'vitalii.kovalchuk@protonmail.com')]","[('', 'k_negoda@meta.ua'), ('', 'k_negoda@meta.ua')]",Re: транспорт,2019-03-11 14:31:23,866.195.138.82,
Re_ 2019-03-21T13_59_47+02_00.eml,"[('Виталий Ковальчук', 'vitalii.kovalchuk@protonmail.com')]","[('', 'k_negoda@meta.ua'), ('', 'k_negoda@meta.ua')]",Re: документы,2019-03-21 11:59:47,423.195.138.94,
Re_ 2019-03-10T12_25_46+02_00.eml,"[('Горковенко Владимир', 'vl_gorkovenko@meta.ua')]","[('Виталий Ковальчук', 'vitalii.kovalchuk@protonmail.com')]","Re: О чем с вами говорили, так пойдет?",2019-03-10 10:25:46,91.203.114.67,UA
Re_ 18 2019-03-13T11_39_32+02_00.eml,"[('Виталий Ковальчук', 'vitalii.kovalchuk@protonmail.com')]","[('', 's.berezenko@meta.ua'), ('', 's.berezenko@meta.ua')]",Re: 18 марта,2019-03-13 09:39:32,725.194.44.61,
Re_ ... 2019-03-08T04_17_12-08_00.eml,"[('Виталий Ковальчук', 'vitalii.kovalchuk@protonmail.com')]","[('', 'sidorchuk.alex@inet.ua'), ('', 'sidorchuk.alex@inet.ua')]",Re: ...,2019-03-08 12:17:12,,
Re_ 2019-03-21T12_53_54+02_00.eml,"[('Виталий Ковальчук', 'vitalii.kovalchuk@protonmail.com')]","[('', 'k_negoda@meta.ua'), ('', 'k_negoda@meta.ua')]",Re: документы,2019-03-21 10:53:54,318.195.138.94,
1+1 2019-03-18T13_35_41+02_00.eml,"[('Артеменко Юрий', 'yury.artemenko@meta.ua')]","[('', 'vitalii.kovalchuk@protonmail.com')]",1+1,2019-03-18 11:35:41,77.120.163.87,UA
(No Subject) 2019-03-21T10_05_00+02_00.eml,"[('', 'gerasimov-artur@inet.ua')]","[('', 'vitalii.kovalchuk@protonmail.com')]",(No Subject),2019-03-21 08:05:00,93.77.12.172,UA
Re_ (No Subject) 2019-03-15T11_55_38+02_00.eml,"[('Виталий Ковальчук', 'vitalii.kovalchuk@protonmail.com')]","[('', 'yury.artemenko@meta.ua'), ('', 'yury.artemenko@meta.ua')]",Re: (No Subject),2019-03-15 09:55:38,701.77.120.163,
Re_ (No Subject) 2019-03-15T15_23_00+02_00.eml,"[('Негода Константин', 'k_negoda@meta.ua')]","[('Виталий Ковальчук', 'vitalii.kovalchuk@protonmail.com')]",Re: (No Subject),2019-03-15 13:23:00,195.138.92.152,UA
2019-03-11T06_26_23-07_00.eml,"[('', 'hmelko.valery@inet.ua')]","[('', 'vitalii.kovalchuk@protonmail.com')]",Рейтинги кандидатов,2019-03-11 13:26:23,195.24.154.3,UA
2019-03-19T10_45_54+02_00.eml,"[('Игоренко Виктор', 'vic-ig@meta.ua')]","[('', 'vitalii.kovalchuk@protonmail.com')]",заказ,2019-03-19 08:45:54,37.53.93.10,UA
(No Subject) 2019-03-12T06_28_40-07_00.eml,"[('', 'olegtereshkov@inet.ua')]","[('', 'vitalii.kovalchuk@protonmail.com')]",(No Subject),2019-03-12 13:28:40,195.69.177.14,UA
Re_ 2019-03-21T11_07_21+02_00.eml,"[('Виталий Ковальчук', 'vitalii.kovalchuk@protonmail.com')]","[('', 'k_negoda@meta.ua'), ('', 'k_negoda@meta.ua')]",Re: документы,2019-03-21 09:07:21,668.195.138.82,
Re_ 2019-03-14T15_16_43+02_00.eml,"[('Негода Константин', 'k_negoda@meta.ua')]","[('Виталий Ковальчук', 'vitalii.kovalchuk@protonmail.com')]",Re: документы,2019-03-14 13:16:43,195.138.82.198,UA
2019-03-08T00_42_39-08_00.eml,"[('Негода Константин', 'k_negoda@meta.ua')]","[('', 'vitalii.kovalchuk@protonmail.com')]",по вопросам,2019-03-08 08:42:39,195.138.82.198,UA
2019-03-18T11_30_48+02_00.eml,"[('Виталий Ковальчук', 'vitalii.kovalchuk@protonmail.com')]","[('', 'andriialekseenko@inet.ua'), ('', 'andriialekseenko@inet.ua')]",Шведские выборы,2019-03-18 09:30:48,,
Re_ (No Subject) 2019-03-11T09_16_27-07_00.eml,"[('Валендюк Олег', 'oleg-valendiuk@meta.ua')]","[('Виталий Ковальчук', 'vitalii.kovalchuk@protonmail.com')]",Re: (No Subject),2019-03-11 16:16:27,46.201.225.210,UA
(No Subject) 2019-03-20T11_16_50+02_00.eml,"[('Виталий Ковальчук', 'vitalii.kovalchuk@protonmail.com')]","[('', '380975551318@inet.ua'), ('', '380975551318@inet.ua')]",(No Subject),2019-03-20 09:16:50,,
Re_ (No Subject) 2019-03-20T11_54_29+02_00.eml,"[('', '380975551318@inet.ua')]","[('Виталий Ковальчук', 'vitalii.kovalchuk@protonmail.com')]",Re: (No Subject),2019-03-20 09:54:29,94.244.44.67,UA
(No Subject) 2019-03-13T12_12_17+02_00.eml,"[('Виталий Ковальчук', 'vitalii.kovalchuk@protonmail.com')]","[('', 'm.grinevska@meta.ua'), ('', 'm.grinevska@meta.ua')]",(No Subject),2019-03-13 10:12:17,,
2019-03-09T18_30_29+02_00.eml,"[('', 'medvedev-oleg@inet.ua')]","[('', 'vitalii.kovalchuk@protonmail.com')]",Надо собрать побольше hecklerов,2019-03-09 16:30:29,31.42.173.57,UA
Re_ 1+1 2019-03-18T13_50_42+02_00.eml,"[('Виталий Ковальчук', 'vitalii.kovalchuk@protonmail.com')]","[('', 'yury.artemenko@meta.ua'), ('', 'yury.artemenko@meta.ua')]",Re: 1+1,2019-03-18 11:50:42,542.77.120.163,
Re_ 2019-03-14T15_55_52+02_00.eml,"[('Виталий Ковальчук', 'vitalii.kovalchuk@protonmail.com')]","[('', 'k_negoda@meta.ua'), ('', 'k_negoda@meta.ua')]",Re: документы,2019-03-14 13:55:52,668.195.138.82,
Re_2019-03-12T03_16_31-07_00.eml,"[('', 'max-kirilenko@inet.ua')]","[('Виталий Ковальчук', 'vitalii.kovalchuk@protonmail.com')]",Re: Черкассы,2019-03-12 10:16:31,91.227.183.222,UA
Re_ (No Subject) 2019-03-15T12_01_20+02_00.eml,"[('', 'zjigulin_a@inet.ua')]","[('Виталий Ковальчук', 'vitalii.kovalchuk@protonmail.com')]",Re: (No Subject),2019-03-15 10:01:20,217.76.204.14,UA
2019-03-20T10_28_14+02_00.eml,"[('Виталий Ковальчук', 'vitalii.kovalchuk@protonmail.com')]","[('', 'sidorchuk.alex@inet.ua'), ('', 'sidorchuk.alex@inet.ua')]",переговоры,2019-03-20 08:28:14,,
Re_ 2019-03-13T11_45_57+02_00.eml,"[('Горковенко Владимир', 'vl_gorkovenko@meta.ua')]","[('Виталий Ковальчук', 'vitalii.kovalchuk@protonmail.com')]",Re: ЮВТ,2019-03-13 09:45:57,91.203.114.58,UA
Re_ 2019-03-20T10_58_29+02_00.eml,"[('Негода Константин', 'k_negoda@meta.ua')]","[('Виталий Ковальчук', 'vitalii.kovalchuk@protonmail.com')]",Re: транспорт,2019-03-20 08:58:29,195.138.92.152,UA
Re_ 2019-03-14T11_29_18+02_00.eml,"[('Негода Константин', 'k_negoda@meta.ua')]","[('Виталий Ковальчук', 'vitalii.kovalchuk@protonmail.com')]",Re: документы,2019-03-14 09:29:18,195.138.82.198,UA
Re_ 18 2019-03-13T10_42_54+02_00.eml,"[('Виталий Ковальчук', 'vitalii.kovalchuk@protonmail.com')]","[('', 's.berezenko@meta.ua'), ('', 's.berezenko@meta.ua')]",Re: 18 марта,2019-03-13 08:42:54,821.194.44.61,
2019-03-06T06_31_27-08_00.eml,"[('Юрий Попутько', 'poputko.yuriy@bigmir.net')]","[('', 'vitalii.kovalchuk@protonmail.com')]",Экологическая катастрофа в Херсонской области,2019-03-06 14:31:27,5.58.76.239,UA
!!! 2019-03-08T02_04_50-08_00.eml,"[('Токарев Александр', 'tokarev.a@meta.ua')]","[('', 'vitalii.kovalchuk@protonmail.com')]",!!!,2019-03-08 10:04:50,178.150.175.221,UA
2019-03-14T10_45_57+02_00.eml,"[('Виталий Ковальчук', 'vitalii.kovalchuk@protonmail.com')]","[('', 'yaroslav.melnyk@meta.ua'), ('', 'yaroslav.melnyk@meta.ua')]",Тур,2019-03-14 08:45:57,,
(No Subject) 2019-03-11T08_17_04-07_00.eml,"[('Виталий Ковальчук', 'vitalii.kovalchuk@protonmail.com')]","[('', 'oleg-valendiuk@meta.ua'), ('', 'oleg-valendiuk@meta.ua')]",(No Subject),2019-03-11 15:17:04,,
(No Subject) 2019-03-19T12_25_36+02_00.eml,"[('Виталий Ковальчук', 'vitalii.kovalchuk@protonmail.com')]","[('', 'a-sim90@meta.ua'), ('', 'a-sim90@meta.ua')]",(No Subject),2019-03-19 10:25:36,,
Re_ (No Subject) 2019-03-19T10_35_13+02_00.eml,"[('', 'nata172@inet.ua')]","[('Виталий Ковальчук', 'vitalii.kovalchuk@protonmail.com')]",Re: (No Subject),2019-03-19 08:35:13,92.242.126.154,UA
Re_ (No Subject) 2019-03-18T10_11_26+02_00.eml,"[('Ярмак Дмитрий', 'dimitry.yarmak@meta.ua')]","[('Виталий Ковальчук', 'vitalii.kovalchuk@protonmail.com')]",Re: (No Subject),2019-03-18 08:11:26,46.151.192.170,UA
(No Subject) 2019-03-19T10_03_25+02_00.eml,"[('Чубаров Рафат', 'chubarov-ra@meta.ua')]","[('', 'vitalii.kovalchuk@protonmail.com')]",(No Subject),2019-03-19 08:03:25,91.193.253.188,UA
2019-03-11T06_59_29-07_00.eml,"[('', 'dubei_vl@inet.ua')]","[('', 'vitalii.kovalchuk@protonmail.com')]",Кузница на Рыбальском,2019-03-11 13:59:29,176.36.118.116,UA
(No Subject) 2019-03-11T06_44_10-07_00.eml,"[('Виталий Ковальчук', 'vitalii.kovalchuk@protonmail.com')]","[('Негода Константин', 'k_negoda@meta.ua')]",(No Subject),2019-03-11 13:44:10,,
Re_ 2019-03-14T10_55_53+02_00.eml,"[('Негода Константин', 'k_negoda@meta.ua')]","[('Виталий Ковальчук', 'vitalii.kovalchuk@protonmail.com')]",Re: документы,2019-03-14 08:55:53,195.138.94.21,UA
(No Subject) 2019-03-18T10_12_11+02_00.eml,"[('Виталий Ковальчук', 'vitalii.kovalchuk@protonmail.com')]","[('', 'zjigulin_a@inet.ua'), ('', 'zjigulin_a@inet.ua')]",(No Subject),2019-03-18 08:12:11,,
Re_2019-03-10T11_06_14+02_00.eml,"[('Горковенко Владимир', 'vl_gorkovenko@meta.ua')]","[('Виталий Ковальчук', 'vitalii.kovalchuk@protonmail.com')]","Re: О чем с вами говорили, так пойдет?",2019-03-10 09:06:14,91.203.114.67,UA
Re_ (No Subject) 2019-03-18T11_07_43+02_00.eml,"[('Виталий Ковальчук', 'vitalii.kovalchuk@protonmail.com')]","[('', 'zjigulin_a@inet.ua'), ('', 'zjigulin_a@inet.ua')]",Re: (No Subject),2019-03-18 09:07:43,,
2019-03-10T12_38_32+02_00.eml,"[('Стражук Дмитро', 'dmitro-strazjuk@meta.ua')]","[('', 'vitalii.kovalchuk@protonmail.com')]",Неприятный разговор,2019-03-10 10:38:32,95.134.195.78,UA
Re_  2019-03-14T11_17_04+02_00.eml,"[('Виталий Ковальчук', 'vitalii.kovalchuk@protonmail.com')]","[('', 'k_negoda@meta.ua'), ('', 'k_negoda@meta.ua')]",Re: документы,2019-03-14 09:17:04,793.195.138.94,
Re_ 2019-03-15T10_42_27+02_00.eml,"[('Ермак Дмитрий', 'dimitry.ermak@meta.ua')]","[('Виталий Ковальчук', 'vitalii.kovalchuk@protonmail.com')]",Re: зе,2019-03-15 08:42:27,46.151.192.170,UA
Re_ 18 2019-03-13T11_05_58+02_00.eml,"[('Виталий Ковальчук', 'vitalii.kovalchuk@protonmail.com')]","[('', 's.berezenko@meta.ua'), ('', 's.berezenko@meta.ua')]",Re: 18 марта,2019-03-13 09:05:58,203.194.44.61,AU
Re_ (No Subject) 2019-03-11T08_39_52-07_00.eml,"[('Валендюк Олег', 'oleg-valendiuk@meta.ua')]","[('Виталий Ковальчук', 'vitalii.kovalchuk@protonmail.com')]",Re: (No Subject),2019-03-11 15:39:52,46.201.225.210,UA
(No Subject) 2019-03-19T12_55_51+02_00.eml,"[('George Kent', 'george.kent.eu@mail.com')]","[('', 'vitalii.kovalchuk@protonmail.com')]",(No Subject),2019-03-19 10:55:51,185.37.213.76,ES
Re_2019-03-10T10_47_33+02_00.eml,"[('Виталий Ковальчук', 'vitalii.kovalchuk@protonmail.com')]","[('Горковенко Владимир', 'vl_gorkovenko@meta.ua')]","Re: О чем с вами говорили, так пойдет?",2019-03-10 08:47:33,002.91.203.114,
Re_ 2019-03-12T05_10_55-07_00.eml,"[('Пономаренко Богдан', 'b-ponomarenko@meta.ua')]","[('Виталий Ковальчук', 'vitalii.kovalchuk@protonmail.com')]",Re: встреча,2019-03-12 12:10:55,77.121.160.9,UA
Re_ 2019-03-14T16_05_11+02_00.eml,"[('Негода Константин', 'k_negoda@meta.ua')]","[('Виталий Ковальчук', 'vitalii.kovalchuk@protonmail.com')]",Re: документы,2019-03-14 14:05:11,195.138.92.152,UA
! 2019-03-08T04_52_09-08_00.eml,"[('Остафийчук Григорий', 'ostaf.grigory@meta.ua')]","[('', 'vitalii.kovalchuk@protonmail.com')]",..!,2019-03-08 12:52:09,37.229.229.202,UA
(No Subject) 2019-03-18T10_08_10+02_00.eml,"[('Виталий Ковальчук', 'vitalii.kovalchuk@protonmail.com')]","[('', 'graham.atkins@tutamail.com'), ('', 'graham.atkins@tutamail.com')]",(No Subject),2019-03-18 08:08:10,,
Re_ (No Subject) 2019-03-13T13_04_16+02_00.eml,"[('Виталий Ковальчук', 'vitalii.kovalchuk@protonmail.com')]","[('', 'hristenko_igor@inet.ua'), ('', 'hristenko_igor@inet.ua')]",Re: (No Subject),2019-03-13 11:04:16,,
2019-03-09T14_39_02+02_00.eml,"[('Виталий Ковальчук', 'vitalii.kovalchuk@protonmail.com')]","[('', 'zjigulin_a@inet.ua'), ('', 'zjigulin_a@inet.ua')]",Насчет вчерашнего разговора,2019-03-09 12:39:02,,
Re_ (No Subject) 2019-03-19T10_19_21+02_00.eml,"[('Виталий Ковальчук', 'vitalii.kovalchuk@protonmail.com')]","[('', 'nata172@inet.ua'), ('', 'nata172@inet.ua')]",Re: (No Subject),2019-03-19 08:19:21,,
Re_ 2019-03-13T14_07_25+02_00.eml,"[('Виталий Ковальчук', 'vitalii.kovalchuk@protonmail.com')]","[('', 'engeniy.radchenko@inet.ua'), ('', 'engeniy.radchenko@inet.ua')]",Re: встреча,2019-03-13 12:07:25,,
(No Subject) 2019-03-15T11_20_33+02_00.eml,"[('Виталий Ковальчук', 'vitalii.kovalchuk@protonmail.com')]","[('', 'yury.artemenko@meta.ua'), ('', 'yury.artemenko@meta.ua')]",(No Subject),2019-03-15 09:20:33,,
Re_ (No Subject) 2019-03-18T12_02_37+02_00.eml,"[('Виталий Ковальчук', 'vitalii.kovalchuk@protonmail.com')]","[('Гелетей Валерий', 'geleteyv@meta.ua')]",Re: (No Subject),2019-03-18 10:02:37,521.194.183.174,
Re_2019-03-14T11_09_41+02_00.eml,"[('Мельник Ярослав', 'yaroslav.melnyk@meta.ua')]","[('Виталий Ковальчук', 'vitalii.kovalchuk@protonmail.com')]",Re: Тур,2019-03-14 09:09:41,176.37.119.45,UA
2019-03-12T02_40_19-07_00.eml,"[('', 'juliaborodii@inet.ua')]","[('', 'vitalii.kovalchuk@protonmail.com')]",новини,2019-03-12 09:40:19,188.115.183.214,UA
Re_ 18 2019-03-13T12_28_44+02_00.eml,"[('Березенко Сергей', 's.berezenko@meta.ua')]","[('Виталий Ковальчук', 'vitalii.kovalchuk@protonmail.com')]",Re: 18 марта,2019-03-13 10:28:44,194.44.61.10,UA
(No Subject) 2019-03-12T03_12_00-07_00.eml,"[('Виталий Ковальчук', 'vitalii.kovalchuk@protonmail.com')]","[('Негода Константин', 'k_negoda@meta.ua')]",(No Subject),2019-03-12 10:12:00,,
Re_ (No Subject) 2019-03-19T12_33_55+02_00.eml,"[('Симоненко Александра', 'a-sim90@meta.ua')]","[('Виталий Ковальчук', 'vitalii.kovalchuk@protonmail.com')]",Re: (No Subject),2019-03-19 10:33:55,176.98.75.120,UA
Re_ upd 2019-03-14T12_45_56+02_00.eml,"[('Виталий Ковальчук', 'vitalii.kovalchuk@protonmail.com')]","[('', 'vl_gorkovenko@meta.ua'), ('', 'vl_gorkovenko@meta.ua')]",Re: upd,2019-03-14 10:45:56,670.91.203.114,
Re_ 2019-03-14T09_59_47+02_00.eml,"[('Виталий Ковальчук', 'vitalii.kovalchuk@protonmail.com')]","[('', 'k_negoda@meta.ua'), ('', 'k_negoda@meta.ua')]",Re: документы,2019-03-14 07:59:47,935.195.138.82,
(No Subject) 2019-03-18T11_14_49+02_00.eml,"[('Виталий Ковальчук', 'vitalii.kovalchuk@protonmail.com')]","[('', 'geleteyv@meta.ua'), ('', 'geleteyv@meta.ua')]",(No Subject),2019-03-18 09:14:49,,
Re_ (No Subject) 2019-03-18T10_32_46+02_00.eml,"[('Ярмак Дмитрий', 'dimitry.yarmak@meta.ua')]","[('Виталий Ковальчук', 'vitalii.kovalchuk@protonmail.com')]",Re: (No Subject),2019-03-18 08:32:46,46.151.192.170,UA
Re_ 2019-03-12T02_55_21-07_00.eml,"[('Виталий Ковальчук', 'vitalii.kovalchuk@protonmail.com')]","[('', 'max-kirilenko@inet.ua'), ('', 'max-kirilenko@inet.ua')]",Re: Черкассы,2019-03-12 09:55:21,,
Re_ 2019-03-10T13_24_47+02_00.eml,"[('Стражук Дмитро', 'dmitro-strazjuk@meta.ua')]","[('Виталий Ковальчук', 'vitalii.kovalchuk@protonmail.com')]",Re: Неприятный разговор,2019-03-10 11:24:47,95.134.195.78,UA
Re_ (No Subject) 2019-03-13T13_29_08+02_00.eml,"[('Виталий Ковальчук', 'vitalii.kovalchuk@protonmail.com')]","[('Яровой Анатолий', 'anatolyyarovoy@meta.ua')]",Re: (No Subject),2019-03-13 11:29:08,289.178.150.89,
Re_ ..! 2019-03-08T05_22_23-08_00.eml,"[('Виталий Ковальчук', 'vitalii.kovalchuk@protonmail.com')]","[('Остафийчук Григорий', 'ostaf.grigory@meta.ua')]",Re: ..!,2019-03-08 13:22:23,860.37.229.229,
2019-03-12T05_00_44-07_00.eml,"[('Виталий Ковальчук', 'vitalii.kovalchuk@protonmail.com')]","[('', 'b-ponomarenko@meta.ua'), ('', 'b-ponomarenko@meta.ua')]",встреча,2019-03-12 12:00:44,,
Re_ (No Subject) 2019-03-14T10_20_56+02_00.eml,"[('Дмитриевский Алексей', 'alexey.dmitrieskiy@meta.ua')]","[('Виталий Ковальчук', 'vitalii.kovalchuk@protonmail.com')]",Re: (No Subject),2019-03-14 08:20:56,178.151.205.154,UA
Re_ (No Subject) 2019-03-20T12_29_47+02_00.eml,"[('', '380975551318@inet.ua')]","[('Виталий Ковальчук', 'vitalii.kovalchuk@protonmail.com')]",Re: (No Subject),2019-03-20 10:29:47,94.244.44.67,UA
Re_ (No Subject) 2019-03-19T10_43_17+02_00.eml,"[('Виталий Ковальчук', 'vitalii.kovalchuk@protonmail.com')]","[('Чубаров Рафат', 'chubarov-ra@meta.ua')]",Re: (No Subject),2019-03-19 08:43:17,101.91.193.253,CN
Re_ (No Subject) 2019-03-15T11_47_44+02_00.eml,"[('Виталий Ковальчук', 'vitalii.kovalchuk@protonmail.com')]","[('', 'zjigulin_a@inet.ua'), ('', 'zjigulin_a@inet.ua')]",Re: (No Subject),2019-03-15 09:47:44,,
(No Subject) 2019-03-19T10_00_34+02_00.eml,"[('Виталий Ковальчук', 'vitalii.kovalchuk@protonmail.com')]","[('', 'nata172@inet.ua'), ('', 'nata172@inet.ua')]",(No Subject),2019-03-19 08:00:34,,
Re_  2019-03-21T11_16_18+02_00.eml,"[('Виталий Ковальчук', 'vitalii.kovalchuk@protonmail.com')]","[('', 'engeniy.radchenko@inet.ua'), ('', 'engeniy.radchenko@inet.ua')]",Re: добрый день,2019-03-21 09:16:18,,
Re_ 2019-03-12T01_29_02-07_00.eml,"[('Виталий Ковальчук', 'vitalii.kovalchuk@protonmail.com')]","[('', 'vl_gorkovenko@meta.ua'), ('', 'vl_gorkovenko@meta.ua')]",Re: поздравления,2019-03-12 08:29:02,768.46.175.70,
(No Subject) 2019-03-13T12_56_55+02_00.eml,"[('', 'hristenko_igor@inet.ua')]","[('', 'vitalii.kovalchuk@protonmail.com')]",(No Subject),2019-03-13 10:56:55,91.223.136.228,UA
2019-03-08T03_47_53-08_00.eml,"[('', 'sidorchuk.alex@inet.ua')]","[('', 'vitalii.kovalchuk@protonmail.com')]",...,2019-03-08 11:47:53,93.76.84.18,UA
Re_ (No Subject) 2019-03-15T11_42_52+02_00.eml,"[('Артеменко Юрий', 'yury.artemenko@meta.ua')]","[('Виталий Ковальчук', 'vitalii.kovalchuk@protonmail.com')]",Re: (No Subject),2019-03-15 09:42:52,77.120.163.87,UA
Re_ (No Subject) 2019-03-20T11_45_31+02_00.eml,"[('', '380975551318@inet.ua')]","[('Виталий Ковальчук', 'vitalii.kovalchuk@protonmail.com')]",Re: (No Subject),2019-03-20 09:45:31,94.244.44.67,UA
2019-03-12T00_34_46-07_00.eml,"[('', 'max-kirilenko@inet.ua')]","[('', 'vitalii.kovalchuk@protonmail.com')]",Черкассы,2019-03-12 07:34:46,91.227.183.222,UA
Re_ (No Subject) 2019-03-19T09_53_27+02_00.eml,"[('Виталий Ковальчук', 'vitalii.kovalchuk@protonmail.com')]","[('', 'k_negoda@meta.ua'), ('', 'k_negoda@meta.ua')]",Re: (No Subject),2019-03-19 07:53:27,930.195.138.92,
Re_ 2019-03-21T12_33_48+02_00.eml,"[('Негода Константин', 'k_negoda@meta.ua')]","[('Виталий Ковальчук', 'vitalii.kovalchuk@protonmail.com')]",Re: документы,2019-03-21 10:33:48,195.138.94.21,UA
Re_ (No Subject) 2019-03-18T10_21_24+02_00.eml,"[('Виталий Ковальчук', 'vitalii.kovalchuk@protonmail.com')]","[('Ярмак Дмитрий', 'dimitry.yarmak@meta.ua')]",Re: (No Subject),2019-03-18 08:21:24,964.46.151.192,
(No Subject) 2019-03-21T15_12_06+02_00.eml,"[('Князевич Руслан', 'ruslan.knyazevich@meta.ua')]","[('', 'vitalii.kovalchuk@protonmail.com')]",(No Subject),2019-03-21 13:12:06,176.124.128.104,UA
Re_ (No Subject) 2019-03-15T10_05_08+02_00.eml,"[('Виталий Ковальчук', 'vitalii.kovalchuk@protonmail.com')]","[('', 'zjigulin_a@inet.ua'), ('', 'zjigulin_a@inet.ua')]",Re: (No Subject),2019-03-15 08:05:08,,
Re_ (No Subject) 2019-03-14T12_17_15+02_00.eml,"[('Виталий Ковальчук', 'vitalii.kovalchuk@protonmail.com')]","[('', 'lutsenko.irina@meta.ua'), ('', 'lutsenko.irina@meta.ua')]",Re: (No Subject),2019-03-14 10:17:15,978.5.58.167,
Re_2019-03-10T11_38_56+02_00.eml,"[('Виталий Ковальчук', 'vitalii.kovalchuk@protonmail.com')]","[('', 'vl_gorkovenko@meta.ua'), ('', 'vl_gorkovenko@meta.ua')]","Re: О чем с вами говорили, так пойдет?",2019-03-10 09:38:56,107.91.203.114,US
18 2019-03-13T10_18_24+02_00.eml,"[('Березенко Сергей', 's.berezenko@meta.ua')]","[('', 'vitalii.kovalchuk@protonmail.com')]",18 марта,2019-03-13 08:18:24,194.44.61.10,UA
(No Subject) 2019-03-13T10_54_41+02_00.eml,"[('Виталий Ковальчук', 'vitalii.kovalchuk@protonmail.com')]","[('', 'dmitro-strazjuk@meta.ua'), ('', 'dmitro-strazjuk@meta.ua')]",(No Subject),2019-03-13 08:54:41,,
Re_ 2019-03-12T03_44_06-07_00.eml,"[('Виталий Ковальчук', 'vitalii.kovalchuk@protonmail.com')]","[('', 'max-kirilenko@inet.ua'), ('', 'max-kirilenko@inet.ua')]",Re: Черкассы,2019-03-12 10:44:06,,
(No Subject) 2019-03-15T09_32_17+02_00.eml,"[('', 'zjigulin_a@inet.ua')]","[('', 'vitalii.kovalchuk@protonmail.com')]",(No Subject),2019-03-15 07:32:17,217.12.222.210,UA
_Re_2019-03-14T11_29_18+02_00.eml,"[('Негода Константин', 'k_negoda@meta.ua')]","[('Виталий Ковальчук', 'vitalii.kovalchuk@protonmail.com')]",Re: документы,2019-03-14 09:29:18,195.138.82.198,UA
